<?xml version="1.0" encoding="UTF-8"?>
<!DOCTYPE suite SYSTEM "http://testng.org/testng-1.0.dtd">
<suite thread-count="1" verbose="0" name="Failed suite [Surefire suite]">
  <test name="Surefire test">
    <classes>
      <class name="com.interflora.TestRunner"/>
    </classes>
  </test> <!-- Surefire test -->
  <test name="Surefire test(failed)">
    <classes>
      <class name="com.interflora.TestRunner">
        <methods>
          <include name="setUpClass"/>
          <include name="runScenario" invocation-numbers="0 1 2"/>
          <include name="afterSuite"/>
          <include name="tearDownClass"/>
        </methods>
      </class> <!-- com.interflora.TestRunner -->
    </classes>
  </test> <!-- Surefire test(failed) -->
</suite> <!-- Failed suite [Surefire suite] -->
